\relax 
\providecommand\hyper@newdestlabel[2]{}
\providecommand\HyperFirstAtBeginDocument{\AtBeginDocument}
\HyperFirstAtBeginDocument{\ifx\hyper@anchor\@undefined
\global\let\oldcontentsline\contentsline
\gdef\contentsline#1#2#3#4{\oldcontentsline{#1}{#2}{#3}}
\global\let\oldnewlabel\newlabel
\gdef\newlabel#1#2{\newlabelxx{#1}#2}
\gdef\newlabelxx#1#2#3#4#5#6{\oldnewlabel{#1}{{#2}{#3}}}
\AtEndDocument{\ifx\hyper@anchor\@undefined
\let\contentsline\oldcontentsline
\let\newlabel\oldnewlabel
\fi}
\fi}
\global\let\hyper@last\relax 
\gdef\HyperFirstAtBeginDocument#1{#1}
\providecommand\HyField@AuxAddToFields[1]{}
\providecommand\HyField@AuxAddToCoFields[2]{}
\@writefile{toc}{\contentsline {section}{\numberline {1}Outline}{1}{section.1}}
\newlabel{sec:outline}{{1}{1}{Outline}{section.1}{}}
\@writefile{toc}{\contentsline {section}{\numberline {2}Requirements}{1}{section.2}}
\newlabel{sec:req}{{2}{1}{Requirements}{section.2}{}}
\@writefile{lof}{\contentsline {figure}{\numberline {1}{\ignorespaces DS9 opening screen on a Mac installation.}}{2}{figure.1}}
\newlabel{fig:open}{{1}{2}{DS9 opening screen on a Mac installation}{figure.1}{}}
\@writefile{toc}{\contentsline {section}{\numberline {3}Starting out}{2}{section.3}}
\newlabel{sec:start}{{3}{2}{Starting out}{section.3}{}}
\@writefile{lof}{\contentsline {figure}{\numberline {2}{\ignorespaces DS9 scale parameters window.}}{3}{figure.2}}
\newlabel{fig:scale}{{2}{3}{DS9 scale parameters window}{figure.2}{}}
\@writefile{toc}{\contentsline {section}{\numberline {4}Working with multiple images}{3}{section.4}}
\newlabel{sec:multiple}{{4}{3}{Working with multiple images}{section.4}{}}
\@writefile{toc}{\contentsline {section}{\numberline {5}Color-composite images}{4}{section.5}}
\newlabel{sec:color}{{5}{4}{Color-composite images}{section.5}{}}
\@writefile{lof}{\contentsline {figure}{\numberline {3}{\ignorespaces DS9 RGB frame window}}{5}{figure.3}}
\newlabel{fig:rgb}{{3}{5}{DS9 RGB frame window}{figure.3}{}}
\@writefile{toc}{\contentsline {section}{\numberline {6}Spatially resolved spectra}{5}{section.6}}
\newlabel{sec:spec}{{6}{5}{Spatially resolved spectra}{section.6}{}}
\@writefile{lof}{\contentsline {figure}{\numberline {4}{\ignorespaces DS9 cube window}}{6}{figure.4}}
\newlabel{fig:cube}{{4}{6}{DS9 cube window}{figure.4}{}}
\@writefile{toc}{\contentsline {section}{\numberline {7}Synthesis questions}{6}{section.7}}
\newlabel{sec:synth}{{7}{6}{Synthesis questions}{section.7}{}}
